^C:\PROJEKTI\PALCKE\MBSOFTWARE\MBSOFTWARE.RC
/l"0x0409" /nologo /fo"X64\RELEASE\MBSOFTWARE.RES"   C:\PROJEKTI\PALCKE\MBSOFTWARE\MBSOFTWARE.RC
^C:\PROJEKTI\LAMELE_CLEAN\MBSOFTWARE\MBSOFTWARE.RC
/l"0x0409" /nologo /fo"X64\RELEASE\MBSOFTWARE.RES"   C:\PROJEKTI\LAMELE_CLEAN\MBSOFTWARE\MBSOFTWARE.RC
^C:\PROJEKTI\LAMELE\MBSOFTWARE\MBSOFTWARE.RC
/l"0x0409" /nologo /fo"X64\RELEASE\MBSOFTWARE.RES"   C:\PROJEKTI\LAMELE\MBSOFTWARE\MBSOFTWARE.RC
^C:\PROJEKTI\LAMELEBELTS\LAMELEBELTS\MBSOFTWARE\MBSOFTWARE.RC
/l"0x0409" /nologo /fo"X64\RELEASE\MBSOFTWARE.RES"   C:\PROJEKTI\LAMELEBELTS\LAMELEBELTS\MBSOFTWARE\MBSOFTWARE.RC
