^C:\PROJEKTI\LAMELEBELTS\LAMELEBELTS\MBSOFTWARE\MBSOFTWARE.QRC
C:\PROJEKTI\LAMELEBELTS\LAMELEBELTS\MBSOFTWARE\RES\CAM0.BMP
C:\PROJEKTI\LAMELEBELTS\LAMELEBELTS\MBSOFTWARE\RES\CAM1.BMP
C:\PROJEKTI\LAMELEBELTS\LAMELEBELTS\MBSOFTWARE\RES\CAM2.BMP
C:\PROJEKTI\LAMELEBELTS\LAMELEBELTS\MBSOFTWARE\RES\CAM0.BMP
C:\PROJEKTI\LAMELEBELTS\LAMELEBELTS\MBSOFTWARE\RES\CAM1.BMP
C:\PROJEKTI\LAMELEBELTS\LAMELEBELTS\MBSOFTWARE\RES\CAM2.BMP
C:\PROJEKTI\LAMELEBELTS\LAMELEBELTS\MBSOFTWARE\RES\IMAGEPROCESSING.PNG
C:\PROJEKTI\LAMELEBELTS\LAMELEBELTS\MBSOFTWARE\RES\IMAGEPROCESSINGBLACK.PNG
C:\PROJEKTI\LAMELEBELTS\LAMELEBELTS\MBSOFTWARE\RES\LARROW.ICO
C:\PROJEKTI\LAMELEBELTS\LAMELEBELTS\MBSOFTWARE\RES\LARROW2.ICO
C:\PROJEKTI\LAMELEBELTS\LAMELEBELTS\MBSOFTWARE\RES\LOGINBIG.BMP
C:\PROJEKTI\LAMELEBELTS\LAMELEBELTS\MBSOFTWARE\RES\LPTICON.BMP
C:\PROJEKTI\LAMELEBELTS\LAMELEBELTS\MBSOFTWARE\RES\LPTICON128X128.BMP
C:\PROJEKTI\LAMELEBELTS\LAMELEBELTS\MBSOFTWARE\RES\PARAMETERSBIG.BMP
C:\PROJEKTI\LAMELEBELTS\LAMELEBELTS\MBSOFTWARE\RES\PARAMETERSEDITBIG.BMP
C:\PROJEKTI\LAMELEBELTS\LAMELEBELTS\MBSOFTWARE\RES\PARAMETERSLARGE.BMP
C:\PROJEKTI\LAMELEBELTS\LAMELEBELTS\MBSOFTWARE\RES\PARAMETERSNEWBIG.BMP
C:\PROJEKTI\LAMELEBELTS\LAMELEBELTS\MBSOFTWARE\RES\RARROW.ICO
C:\PROJEKTI\LAMELEBELTS\LAMELEBELTS\MBSOFTWARE\RES\RARROW2.ICO
C:\PROJEKTI\LAMELEBELTS\LAMELEBELTS\MBSOFTWARE\RES\TYPEDELETEICO.ICO
C:\PROJEKTI\LAMELEBELTS\LAMELEBELTS\MBSOFTWARE\RES\TYPENEWICO.ICO
C:\PROJEKTI\LAMELEBELTS\LAMELEBELTS\MBSOFTWARE\RES\TYPESDELETE.BMP
C:\PROJEKTI\LAMELEBELTS\LAMELEBELTS\MBSOFTWARE\RES\TYPESLARGE.BMP
C:\PROJEKTI\LAMELEBELTS\LAMELEBELTS\MBSOFTWARE\RES\LARROW.ICO
C:\PROJEKTI\LAMELEBELTS\LAMELEBELTS\MBSOFTWARE\RES\LARROW2.ICO
C:\PROJEKTI\LAMELEBELTS\LAMELEBELTS\MBSOFTWARE\RES\LOGINBIG.BMP
C:\PROJEKTI\LAMELEBELTS\LAMELEBELTS\MBSOFTWARE\RES\LPTICON.BMP
C:\PROJEKTI\LAMELEBELTS\LAMELEBELTS\MBSOFTWARE\RES\LPTICON128X128.BMP
C:\PROJEKTI\LAMELEBELTS\LAMELEBELTS\MBSOFTWARE\RES\PARAMETERSBIG.BMP
C:\PROJEKTI\LAMELEBELTS\LAMELEBELTS\MBSOFTWARE\RES\PARAMETERSEDITBIG.BMP
C:\PROJEKTI\LAMELEBELTS\LAMELEBELTS\MBSOFTWARE\RES\PARAMETERSNEWBIG.BMP
C:\PROJEKTI\LAMELEBELTS\LAMELEBELTS\MBSOFTWARE\RES\RARROW.ICO
C:\PROJEKTI\LAMELEBELTS\LAMELEBELTS\MBSOFTWARE\RES\RARROW2.ICO
C:\PROJEKTI\LAMELEBELTS\LAMELEBELTS\MBSOFTWARE\RES\TYPEDELETEICO.ICO
C:\PROJEKTI\LAMELEBELTS\LAMELEBELTS\MBSOFTWARE\RES\TYPENEWICO.ICO
C:\PROJEKTI\LAMELEBELTS\LAMELEBELTS\MBSOFTWARE\RES\TYPESLARGE.BMP
C:\PROJEKTI\LAMELEBELTS\LAMELEBELTS\MBSOFTWARE\RES\LARROW.ICO
C:\PROJEKTI\LAMELEBELTS\LAMELEBELTS\MBSOFTWARE\RES\LARROW2.ICO
C:\PROJEKTI\LAMELEBELTS\LAMELEBELTS\MBSOFTWARE\RES\LOGINBIG.BMP
C:\PROJEKTI\LAMELEBELTS\LAMELEBELTS\MBSOFTWARE\RES\PARAMETERSBIG.BMP
C:\PROJEKTI\LAMELEBELTS\LAMELEBELTS\MBSOFTWARE\RES\PARAMETERSEDITBIG.BMP
C:\PROJEKTI\LAMELEBELTS\LAMELEBELTS\MBSOFTWARE\RES\PARAMETERSNEWBIG.BMP
C:\PROJEKTI\LAMELEBELTS\LAMELEBELTS\MBSOFTWARE\RES\RARROW.ICO
C:\PROJEKTI\LAMELEBELTS\LAMELEBELTS\MBSOFTWARE\RES\RARROW2.ICO
C:\PROJEKTI\LAMELEBELTS\LAMELEBELTS\MBSOFTWARE\RES\TYPEDELETEICO.ICO
C:\PROJEKTI\LAMELEBELTS\LAMELEBELTS\MBSOFTWARE\RES\TYPENEWICO.ICO
C:\PROJEKTI\LAMELEBELTS\LAMELEBELTS\MBSOFTWARE\RES\TYPESLARGE.BMP
C:\PROJEKTI\LAMELEBELTS\LAMELEBELTS\MBSOFTWARE\RES\LPTICON.BMP
C:\PROJEKTI\LAMELEBELTS\LAMELEBELTS\MBSOFTWARE\RES\LPTICON128X128.BMP
