^C:\PROJEKTI\LAMELEWITHBELTS\LAMELEWITHBELTS\MBSOFTWARE\STDAFX.CPP
C:\PROJEKTI\LAMELEWITHBELTS\LAMELEWITHBELTS\MBSOFTWARE\X64\DEBUG\MBSOFTWARE.PCH
C:\PROJEKTI\LAMELEWITHBELTS\LAMELEWITHBELTS\MBSOFTWARE\X64\DEBUG\VC141.PDB
C:\PROJEKTI\LAMELEWITHBELTS\LAMELEWITHBELTS\MBSOFTWARE\X64\DEBUG\STDAFX.OBJ
^C:\PROJEKTI\LAMELEWITHBELTS\LAMELEWITHBELTS\MBSOFTWARE\ABOUTUS.CPP|C:\PROJEKTI\LAMELEWITHBELTS\LAMELEWITHBELTS\MBSOFTWARE\CAMERA.CPP|C:\PROJEKTI\LAMELEWITHBELTS\LAMELEWITHBELTS\MBSOFTWARE\CCIRCLE.CPP|C:\PROJEKTI\LAMELEWITHBELTS\LAMELEWITHBELTS\MBSOFTWARE\CCUSTOMGRAPHICSITEM.CPP|C:\PROJEKTI\LAMELEWITHBELTS\LAMELEWITHBELTS\MBSOFTWARE\CLINE.CPP|C:\PROJEKTI\LAMELEWITHBELTS\LAMELEWITHBELTS\MBSOFTWARE\CONTROLCARDMB.CPP|C:\PROJEKTI\LAMELEWITHBELTS\LAMELEWITHBELTS\MBSOFTWARE\CONTROLLPT.CPP|C:\PROJEKTI\LAMELEWITHBELTS\LAMELEWITHBELTS\MBSOFTWARE\CPOINTFLOAT.CPP|C:\PROJEKTI\LAMELEWITHBELTS\LAMELEWITHBELTS\MBSOFTWARE\CPROPERTY.CPP|C:\PROJEKTI\LAMELEWITHBELTS\LAMELEWITHBELTS\MBSOFTWARE\CRECTROTATED.CPP|C:\PROJEKTI\LAMELEWITHBELTS\LAMELEWITHBELTS\MBSOFTWARE\DLGTYPES.CPP|C:\PROJEKTI\LAMELEWITHBELTS\LAMELEWITHBELTS\MBSOFTWARE\GENERALSETTINGS.CPP|C:\PROJEKTI\LAMELEWITHBELTS\LAMELEWITHBELTS\MBSOFTWARE\HISTORY.CPP|C:\PROJEKTI\LAMELEWITHBELTS\LAMELEWITHBELTS\MBSOFTWARE\IMAGEPROCESSING.CPP|C:\PROJEKTI\LAMELEWITHBELTS\LAMELEWITHBELTS\MBSOFTWARE\IMAGINGSOURCE.CPP|C:\PROJEKTI\LAMELEWITHBELTS\LAMELEWITHBELTS\MBSOFTWARE\LOGINWINDOW.CPP|C:\PROJEKTI\LAMELEWITHBELTS\LAMELEWITHBELTS\MBSOFTWARE\LOGWINDOW.CPP|C:\PROJEKTI\LAMELEWITHBELTS\LAMELEWITHBELTS\MBSOFTWARE\MAIN.CPP|C:\PROJEKTI\LAMELEWITHBELTS\LAMELEWITHBELTS\MBSOFTWARE\MBSOFTWARE.CPP|C:\PROJEKTI\LAMELEWITHBELTS\LAMELEWITHBELTS\MBSOFTWARE\MEASURAND.CPP|C:\PROJEKTI\LAMELEWITHBELTS\LAMELEWITHBELTS\MBSOFTWARE\MEMORYBUFFER.CPP|C:\PROJEKTI\LAMELEWITHBELTS\LAMELEWITHBELTS\MBSOFTWARE\PCIE.CPP|C:\PROJEKTI\LAMELEWITHBELTS\LAMELEWITHBELTS\MBSOFTWARE\POINTGRAY.CPP|C:\PROJEKTI\LAMELEWITHBELTS\LAMELEWITHBELTS\MBSOFTWARE\SERIAL.CPP|C:\PROJEKTI\LAMELEWITHBELTS\LAMELEWITHBELTS\MBSOFTWARE\SERVER.CPP|C:\PROJEKTI\LAMELEWITHBELTS\LAMELEWITHBELTS\MBSOFTWARE\SIGNALS.CPP|C:\PROJEKTI\LAMELEWITHBELTS\LAMELEWITHBELTS\MBSOFTWARE\SMCDRIVE.CPP|C:\PROJEKTI\LAMELEWITHBELTS\LAMELEWITHBELTS\MBSOFTWARE\STATUSBOX.CPP|C:\PROJEKTI\LAMELEWITHBELTS\LAMELEWITHBELTS\MBSOFTWARE\TCP.CPP|C:\PROJEKTI\LAMELEWITHBELTS\LAMELEWITHBELTS\MBSOFTWARE\TIMER.CPP|C:\PROJEKTI\LAMELEWITHBELTS\LAMELEWITHBELTS\MBSOFTWARE\TYPES.CPP
C:\PROJEKTI\LAMELEWITHBELTS\LAMELEWITHBELTS\MBSOFTWARE\X64\DEBUG\CONTROLCARDMB.OBJ
C:\PROJEKTI\LAMELEWITHBELTS\LAMELEWITHBELTS\MBSOFTWARE\X64\DEBUG\MBSOFTWARE.OBJ
C:\PROJEKTI\LAMELEWITHBELTS\LAMELEWITHBELTS\MBSOFTWARE\X64\DEBUG\CRECTROTATED.OBJ
C:\PROJEKTI\LAMELEWITHBELTS\LAMELEWITHBELTS\MBSOFTWARE\X64\DEBUG\IMAGEPROCESSING.OBJ
C:\PROJEKTI\LAMELEWITHBELTS\LAMELEWITHBELTS\MBSOFTWARE\X64\DEBUG\ABOUTUS.OBJ
C:\PROJEKTI\LAMELEWITHBELTS\LAMELEWITHBELTS\MBSOFTWARE\X64\DEBUG\HISTORY.OBJ
C:\PROJEKTI\LAMELEWITHBELTS\LAMELEWITHBELTS\MBSOFTWARE\X64\DEBUG\MAIN.OBJ
C:\PROJEKTI\LAMELEWITHBELTS\LAMELEWITHBELTS\MBSOFTWARE\X64\DEBUG\CONTROLLPT.OBJ
C:\PROJEKTI\LAMELEWITHBELTS\LAMELEWITHBELTS\MBSOFTWARE\X64\DEBUG\LOGINWINDOW.OBJ
C:\PROJEKTI\LAMELEWITHBELTS\LAMELEWITHBELTS\MBSOFTWARE\X64\DEBUG\CCUSTOMGRAPHICSITEM.OBJ
C:\PROJEKTI\LAMELEWITHBELTS\LAMELEWITHBELTS\MBSOFTWARE\X64\DEBUG\DLGTYPES.OBJ
C:\PROJEKTI\LAMELEWITHBELTS\LAMELEWITHBELTS\MBSOFTWARE\X64\DEBUG\IMAGINGSOURCE.OBJ
C:\PROJEKTI\LAMELEWITHBELTS\LAMELEWITHBELTS\MBSOFTWARE\X64\DEBUG\CCIRCLE.OBJ
C:\PROJEKTI\LAMELEWITHBELTS\LAMELEWITHBELTS\MBSOFTWARE\X64\DEBUG\CLINE.OBJ
C:\PROJEKTI\LAMELEWITHBELTS\LAMELEWITHBELTS\MBSOFTWARE\X64\DEBUG\LOGWINDOW.OBJ
C:\PROJEKTI\LAMELEWITHBELTS\LAMELEWITHBELTS\MBSOFTWARE\X64\DEBUG\CPROPERTY.OBJ
C:\PROJEKTI\LAMELEWITHBELTS\LAMELEWITHBELTS\MBSOFTWARE\X64\DEBUG\SERIAL.OBJ
C:\PROJEKTI\LAMELEWITHBELTS\LAMELEWITHBELTS\MBSOFTWARE\X64\DEBUG\SERVER.OBJ
C:\PROJEKTI\LAMELEWITHBELTS\LAMELEWITHBELTS\MBSOFTWARE\X64\DEBUG\SIGNALS.OBJ
C:\PROJEKTI\LAMELEWITHBELTS\LAMELEWITHBELTS\MBSOFTWARE\X64\DEBUG\SMCDRIVE.OBJ
C:\PROJEKTI\LAMELEWITHBELTS\LAMELEWITHBELTS\MBSOFTWARE\X64\DEBUG\CPOINTFLOAT.OBJ
C:\PROJEKTI\LAMELEWITHBELTS\LAMELEWITHBELTS\MBSOFTWARE\X64\DEBUG\GENERALSETTINGS.OBJ
C:\PROJEKTI\LAMELEWITHBELTS\LAMELEWITHBELTS\MBSOFTWARE\X64\DEBUG\MEASURAND.OBJ
C:\PROJEKTI\LAMELEWITHBELTS\LAMELEWITHBELTS\MBSOFTWARE\X64\DEBUG\PCIE.OBJ
C:\PROJEKTI\LAMELEWITHBELTS\LAMELEWITHBELTS\MBSOFTWARE\X64\DEBUG\POINTGRAY.OBJ
C:\PROJEKTI\LAMELEWITHBELTS\LAMELEWITHBELTS\MBSOFTWARE\X64\DEBUG\STATUSBOX.OBJ
C:\PROJEKTI\LAMELEWITHBELTS\LAMELEWITHBELTS\MBSOFTWARE\X64\DEBUG\TCP.OBJ
C:\PROJEKTI\LAMELEWITHBELTS\LAMELEWITHBELTS\MBSOFTWARE\X64\DEBUG\CAMERA.OBJ
C:\PROJEKTI\LAMELEWITHBELTS\LAMELEWITHBELTS\MBSOFTWARE\X64\DEBUG\MEMORYBUFFER.OBJ
C:\PROJEKTI\LAMELEWITHBELTS\LAMELEWITHBELTS\MBSOFTWARE\X64\DEBUG\TIMER.OBJ
C:\PROJEKTI\LAMELEWITHBELTS\LAMELEWITHBELTS\MBSOFTWARE\X64\DEBUG\TYPES.OBJ
^C:\PROJEKTI\LAMELEWITHBELTS\LAMELEWITHBELTS\MBSOFTWARE\ABOUTUS.CPP
C:\PROJEKTI\LAMELEWITHBELTS\LAMELEWITHBELTS\MBSOFTWARE\X64\DEBUG\VC141.PDB
^C:\PROJEKTI\LAMELEWITHBELTS\LAMELEWITHBELTS\MBSOFTWARE\CAMERA.CPP
C:\PROJEKTI\LAMELEWITHBELTS\LAMELEWITHBELTS\MBSOFTWARE\X64\DEBUG\VC141.PDB
^C:\PROJEKTI\LAMELEWITHBELTS\LAMELEWITHBELTS\MBSOFTWARE\CCIRCLE.CPP
C:\PROJEKTI\LAMELEWITHBELTS\LAMELEWITHBELTS\MBSOFTWARE\X64\DEBUG\VC141.PDB
^C:\PROJEKTI\LAMELEWITHBELTS\LAMELEWITHBELTS\MBSOFTWARE\CCUSTOMGRAPHICSITEM.CPP
C:\PROJEKTI\LAMELEWITHBELTS\LAMELEWITHBELTS\MBSOFTWARE\X64\DEBUG\VC141.PDB
^C:\PROJEKTI\LAMELEWITHBELTS\LAMELEWITHBELTS\MBSOFTWARE\CONTROLCARDMB.CPP
C:\PROJEKTI\LAMELEWITHBELTS\LAMELEWITHBELTS\MBSOFTWARE\X64\DEBUG\VC141.PDB
^C:\PROJEKTI\LAMELEWITHBELTS\LAMELEWITHBELTS\MBSOFTWARE\CONTROLLPT.CPP
C:\PROJEKTI\LAMELEWITHBELTS\LAMELEWITHBELTS\MBSOFTWARE\X64\DEBUG\VC141.PDB
^C:\PROJEKTI\LAMELEWITHBELTS\LAMELEWITHBELTS\MBSOFTWARE\CPOINTFLOAT.CPP
C:\PROJEKTI\LAMELEWITHBELTS\LAMELEWITHBELTS\MBSOFTWARE\X64\DEBUG\VC141.PDB
^C:\PROJEKTI\LAMELEWITHBELTS\LAMELEWITHBELTS\MBSOFTWARE\CRECTROTATED.CPP
C:\PROJEKTI\LAMELEWITHBELTS\LAMELEWITHBELTS\MBSOFTWARE\X64\DEBUG\VC141.PDB
^C:\PROJEKTI\LAMELEWITHBELTS\LAMELEWITHBELTS\MBSOFTWARE\DLGTYPES.CPP
C:\PROJEKTI\LAMELEWITHBELTS\LAMELEWITHBELTS\MBSOFTWARE\X64\DEBUG\VC141.PDB
^C:\PROJEKTI\LAMELEWITHBELTS\LAMELEWITHBELTS\MBSOFTWARE\GENERALSETTINGS.CPP
C:\PROJEKTI\LAMELEWITHBELTS\LAMELEWITHBELTS\MBSOFTWARE\X64\DEBUG\VC141.PDB
^C:\PROJEKTI\LAMELEWITHBELTS\LAMELEWITHBELTS\MBSOFTWARE\HISTORY.CPP
C:\PROJEKTI\LAMELEWITHBELTS\LAMELEWITHBELTS\MBSOFTWARE\X64\DEBUG\VC141.PDB
^C:\PROJEKTI\LAMELEWITHBELTS\LAMELEWITHBELTS\MBSOFTWARE\IMAGEPROCESSING.CPP
C:\PROJEKTI\LAMELEWITHBELTS\LAMELEWITHBELTS\MBSOFTWARE\X64\DEBUG\VC141.PDB
^C:\PROJEKTI\LAMELEWITHBELTS\LAMELEWITHBELTS\MBSOFTWARE\IMAGINGSOURCE.CPP
C:\PROJEKTI\LAMELEWITHBELTS\LAMELEWITHBELTS\MBSOFTWARE\X64\DEBUG\VC141.PDB
^C:\PROJEKTI\LAMELEWITHBELTS\LAMELEWITHBELTS\MBSOFTWARE\CLINE.CPP
C:\PROJEKTI\LAMELEWITHBELTS\LAMELEWITHBELTS\MBSOFTWARE\X64\DEBUG\VC141.PDB
^C:\PROJEKTI\LAMELEWITHBELTS\LAMELEWITHBELTS\MBSOFTWARE\LOGINWINDOW.CPP
C:\PROJEKTI\LAMELEWITHBELTS\LAMELEWITHBELTS\MBSOFTWARE\X64\DEBUG\VC141.PDB
^C:\PROJEKTI\LAMELEWITHBELTS\LAMELEWITHBELTS\MBSOFTWARE\LOGWINDOW.CPP
C:\PROJEKTI\LAMELEWITHBELTS\LAMELEWITHBELTS\MBSOFTWARE\X64\DEBUG\VC141.PDB
^C:\PROJEKTI\LAMELEWITHBELTS\LAMELEWITHBELTS\MBSOFTWARE\MAIN.CPP
C:\PROJEKTI\LAMELEWITHBELTS\LAMELEWITHBELTS\MBSOFTWARE\X64\DEBUG\VC141.PDB
^C:\PROJEKTI\LAMELEWITHBELTS\LAMELEWITHBELTS\MBSOFTWARE\MBSOFTWARE.CPP
C:\PROJEKTI\LAMELEWITHBELTS\LAMELEWITHBELTS\MBSOFTWARE\X64\DEBUG\VC141.PDB
^C:\PROJEKTI\LAMELEWITHBELTS\LAMELEWITHBELTS\MBSOFTWARE\MEASURAND.CPP
C:\PROJEKTI\LAMELEWITHBELTS\LAMELEWITHBELTS\MBSOFTWARE\X64\DEBUG\VC141.PDB
^C:\PROJEKTI\LAMELEWITHBELTS\LAMELEWITHBELTS\MBSOFTWARE\MEMORYBUFFER.CPP
C:\PROJEKTI\LAMELEWITHBELTS\LAMELEWITHBELTS\MBSOFTWARE\X64\DEBUG\VC141.PDB
^C:\PROJEKTI\LAMELEWITHBELTS\LAMELEWITHBELTS\MBSOFTWARE\PCIE.CPP
C:\PROJEKTI\LAMELEWITHBELTS\LAMELEWITHBELTS\MBSOFTWARE\X64\DEBUG\VC141.PDB
^C:\PROJEKTI\LAMELEWITHBELTS\LAMELEWITHBELTS\MBSOFTWARE\POINTGRAY.CPP
C:\PROJEKTI\LAMELEWITHBELTS\LAMELEWITHBELTS\MBSOFTWARE\X64\DEBUG\VC141.PDB
^C:\PROJEKTI\LAMELEWITHBELTS\LAMELEWITHBELTS\MBSOFTWARE\CPROPERTY.CPP
C:\PROJEKTI\LAMELEWITHBELTS\LAMELEWITHBELTS\MBSOFTWARE\X64\DEBUG\VC141.PDB
^C:\PROJEKTI\LAMELEWITHBELTS\LAMELEWITHBELTS\MBSOFTWARE\SERIAL.CPP
C:\PROJEKTI\LAMELEWITHBELTS\LAMELEWITHBELTS\MBSOFTWARE\X64\DEBUG\VC141.PDB
^C:\PROJEKTI\LAMELEWITHBELTS\LAMELEWITHBELTS\MBSOFTWARE\SERVER.CPP
C:\PROJEKTI\LAMELEWITHBELTS\LAMELEWITHBELTS\MBSOFTWARE\X64\DEBUG\VC141.PDB
^C:\PROJEKTI\LAMELEWITHBELTS\LAMELEWITHBELTS\MBSOFTWARE\SIGNALS.CPP
C:\PROJEKTI\LAMELEWITHBELTS\LAMELEWITHBELTS\MBSOFTWARE\X64\DEBUG\VC141.PDB
^C:\PROJEKTI\LAMELEWITHBELTS\LAMELEWITHBELTS\MBSOFTWARE\SMCDRIVE.CPP
C:\PROJEKTI\LAMELEWITHBELTS\LAMELEWITHBELTS\MBSOFTWARE\X64\DEBUG\VC141.PDB
^C:\PROJEKTI\LAMELEWITHBELTS\LAMELEWITHBELTS\MBSOFTWARE\STATUSBOX.CPP
C:\PROJEKTI\LAMELEWITHBELTS\LAMELEWITHBELTS\MBSOFTWARE\X64\DEBUG\VC141.PDB
^C:\PROJEKTI\LAMELEWITHBELTS\LAMELEWITHBELTS\MBSOFTWARE\TCP.CPP
C:\PROJEKTI\LAMELEWITHBELTS\LAMELEWITHBELTS\MBSOFTWARE\X64\DEBUG\VC141.PDB
^C:\PROJEKTI\LAMELEWITHBELTS\LAMELEWITHBELTS\MBSOFTWARE\TIMER.CPP
C:\PROJEKTI\LAMELEWITHBELTS\LAMELEWITHBELTS\MBSOFTWARE\X64\DEBUG\VC141.PDB
^C:\PROJEKTI\LAMELEWITHBELTS\LAMELEWITHBELTS\MBSOFTWARE\TYPES.CPP
C:\PROJEKTI\LAMELEWITHBELTS\LAMELEWITHBELTS\MBSOFTWARE\X64\DEBUG\VC141.PDB
^C:\PROJEKTI\LAMELEWITHBELTS\LAMELEWITHBELTS\MBSOFTWARE\GENERATEDFILES\DEBUG\MOC_ABOUTUS.CPP|C:\PROJEKTI\LAMELEWITHBELTS\LAMELEWITHBELTS\MBSOFTWARE\GENERATEDFILES\DEBUG\MOC_CAMERA.CPP|C:\PROJEKTI\LAMELEWITHBELTS\LAMELEWITHBELTS\MBSOFTWARE\GENERATEDFILES\DEBUG\MOC_CONTROLCARDMB.CPP|C:\PROJEKTI\LAMELEWITHBELTS\LAMELEWITHBELTS\MBSOFTWARE\GENERATEDFILES\DEBUG\MOC_CONTROLLPT.CPP|C:\PROJEKTI\LAMELEWITHBELTS\LAMELEWITHBELTS\MBSOFTWARE\GENERATEDFILES\DEBUG\MOC_DLGTYPES.CPP|C:\PROJEKTI\LAMELEWITHBELTS\LAMELEWITHBELTS\MBSOFTWARE\GENERATEDFILES\DEBUG\MOC_GENERALSETTINGS.CPP|C:\PROJEKTI\LAMELEWITHBELTS\LAMELEWITHBELTS\MBSOFTWARE\GENERATEDFILES\DEBUG\MOC_HISTORY.CPP|C:\PROJEKTI\LAMELEWITHBELTS\LAMELEWITHBELTS\MBSOFTWARE\GENERATEDFILES\DEBUG\MOC_IMAGEPROCESSING.CPP|C:\PROJEKTI\LAMELEWITHBELTS\LAMELEWITHBELTS\MBSOFTWARE\GENERATEDFILES\DEBUG\MOC_LOGINWINDOW.CPP|C:\PROJEKTI\LAMELEWITHBELTS\LAMELEWITHBELTS\MBSOFTWARE\GENERATEDFILES\DEBUG\MOC_LOGWINDOW.CPP|C:\PROJEKTI\LAMELEWITHBELTS\LAMELEWITHBELTS\MBSOFTWARE\GENERATEDFILES\DEBUG\MOC_MBSOFTWARE.CPP|C:\PROJEKTI\LAMELEWITHBELTS\LAMELEWITHBELTS\MBSOFTWARE\GENERATEDFILES\DEBUG\MOC_MEASURAND.CPP|C:\PROJEKTI\LAMELEWITHBELTS\LAMELEWITHBELTS\MBSOFTWARE\GENERATEDFILES\DEBUG\MOC_POINTGRAY.CPP|C:\PROJEKTI\LAMELEWITHBELTS\LAMELEWITHBELTS\MBSOFTWARE\GENERATEDFILES\DEBUG\MOC_SERIAL.CPP|C:\PROJEKTI\LAMELEWITHBELTS\LAMELEWITHBELTS\MBSOFTWARE\GENERATEDFILES\DEBUG\MOC_SERVER.CPP|C:\PROJEKTI\LAMELEWITHBELTS\LAMELEWITHBELTS\MBSOFTWARE\GENERATEDFILES\DEBUG\MOC_SMCDRIVE.CPP|C:\PROJEKTI\LAMELEWITHBELTS\LAMELEWITHBELTS\MBSOFTWARE\GENERATEDFILES\DEBUG\MOC_STATUSBOX.CPP|C:\PROJEKTI\LAMELEWITHBELTS\LAMELEWITHBELTS\MBSOFTWARE\GENERATEDFILES\DEBUG\MOC_TCP.CPP|C:\PROJEKTI\LAMELEWITHBELTS\LAMELEWITHBELTS\MBSOFTWARE\GENERATEDFILES\DEBUG\MOC_TYPES.CPP|C:\PROJEKTI\LAMELEWITHBELTS\LAMELEWITHBELTS\MBSOFTWARE\GENERATEDFILES\QRC_MBSOFTWARE.CPP
C:\PROJEKTI\LAMELEWITHBELTS\LAMELEWITHBELTS\MBSOFTWARE\X64\DEBUG\MOC_DLGTYPES.OBJ
C:\PROJEKTI\LAMELEWITHBELTS\LAMELEWITHBELTS\MBSOFTWARE\X64\DEBUG\MOC_SERIAL.OBJ
C:\PROJEKTI\LAMELEWITHBELTS\LAMELEWITHBELTS\MBSOFTWARE\X64\DEBUG\MOC_SERVER.OBJ
C:\PROJEKTI\LAMELEWITHBELTS\LAMELEWITHBELTS\MBSOFTWARE\X64\DEBUG\MOC_HISTORY.OBJ
C:\PROJEKTI\LAMELEWITHBELTS\LAMELEWITHBELTS\MBSOFTWARE\X64\DEBUG\MOC_POINTGRAY.OBJ
C:\PROJEKTI\LAMELEWITHBELTS\LAMELEWITHBELTS\MBSOFTWARE\X64\DEBUG\MOC_TYPES.OBJ
C:\PROJEKTI\LAMELEWITHBELTS\LAMELEWITHBELTS\MBSOFTWARE\X64\DEBUG\MOC_IMAGEPROCESSING.OBJ
C:\PROJEKTI\LAMELEWITHBELTS\LAMELEWITHBELTS\MBSOFTWARE\X64\DEBUG\MOC_CONTROLCARDMB.OBJ
C:\PROJEKTI\LAMELEWITHBELTS\LAMELEWITHBELTS\MBSOFTWARE\X64\DEBUG\MOC_SMCDRIVE.OBJ
C:\PROJEKTI\LAMELEWITHBELTS\LAMELEWITHBELTS\MBSOFTWARE\X64\DEBUG\MOC_MEASURAND.OBJ
C:\PROJEKTI\LAMELEWITHBELTS\LAMELEWITHBELTS\MBSOFTWARE\X64\DEBUG\MOC_ABOUTUS.OBJ
C:\PROJEKTI\LAMELEWITHBELTS\LAMELEWITHBELTS\MBSOFTWARE\X64\DEBUG\MOC_GENERALSETTINGS.OBJ
C:\PROJEKTI\LAMELEWITHBELTS\LAMELEWITHBELTS\MBSOFTWARE\X64\DEBUG\MOC_TCP.OBJ
C:\PROJEKTI\LAMELEWITHBELTS\LAMELEWITHBELTS\MBSOFTWARE\X64\DEBUG\QRC_MBSOFTWARE.OBJ
C:\PROJEKTI\LAMELEWITHBELTS\LAMELEWITHBELTS\MBSOFTWARE\X64\DEBUG\MOC_CAMERA.OBJ
C:\PROJEKTI\LAMELEWITHBELTS\LAMELEWITHBELTS\MBSOFTWARE\X64\DEBUG\MOC_LOGINWINDOW.OBJ
C:\PROJEKTI\LAMELEWITHBELTS\LAMELEWITHBELTS\MBSOFTWARE\X64\DEBUG\MOC_CONTROLLPT.OBJ
C:\PROJEKTI\LAMELEWITHBELTS\LAMELEWITHBELTS\MBSOFTWARE\X64\DEBUG\MOC_LOGWINDOW.OBJ
C:\PROJEKTI\LAMELEWITHBELTS\LAMELEWITHBELTS\MBSOFTWARE\X64\DEBUG\MOC_STATUSBOX.OBJ
C:\PROJEKTI\LAMELEWITHBELTS\LAMELEWITHBELTS\MBSOFTWARE\X64\DEBUG\MOC_MBSOFTWARE.OBJ
^C:\PROJEKTI\LAMELEWITHBELTS\LAMELEWITHBELTS\MBSOFTWARE\GENERATEDFILES\QRC_MBSOFTWARE.CPP
C:\PROJEKTI\LAMELEWITHBELTS\LAMELEWITHBELTS\MBSOFTWARE\X64\DEBUG\VC141.PDB
^C:\PROJEKTI\LAMELEWITHBELTS\LAMELEWITHBELTS\MBSOFTWARE\GENERATEDFILES\DEBUG\MOC_TYPES.CPP
C:\PROJEKTI\LAMELEWITHBELTS\LAMELEWITHBELTS\MBSOFTWARE\X64\DEBUG\VC141.PDB
^C:\PROJEKTI\LAMELEWITHBELTS\LAMELEWITHBELTS\MBSOFTWARE\GENERATEDFILES\DEBUG\MOC_CAMERA.CPP
C:\PROJEKTI\LAMELEWITHBELTS\LAMELEWITHBELTS\MBSOFTWARE\X64\DEBUG\VC141.PDB
^C:\PROJEKTI\LAMELEWITHBELTS\LAMELEWITHBELTS\MBSOFTWARE\GENERATEDFILES\DEBUG\MOC_CONTROLCARDMB.CPP
C:\PROJEKTI\LAMELEWITHBELTS\LAMELEWITHBELTS\MBSOFTWARE\X64\DEBUG\VC141.PDB
^C:\PROJEKTI\LAMELEWITHBELTS\LAMELEWITHBELTS\MBSOFTWARE\GENERATEDFILES\DEBUG\MOC_ABOUTUS.CPP
C:\PROJEKTI\LAMELEWITHBELTS\LAMELEWITHBELTS\MBSOFTWARE\X64\DEBUG\VC141.PDB
^C:\PROJEKTI\LAMELEWITHBELTS\LAMELEWITHBELTS\MBSOFTWARE\GENERATEDFILES\DEBUG\MOC_CONTROLLPT.CPP
C:\PROJEKTI\LAMELEWITHBELTS\LAMELEWITHBELTS\MBSOFTWARE\X64\DEBUG\VC141.PDB
^C:\PROJEKTI\LAMELEWITHBELTS\LAMELEWITHBELTS\MBSOFTWARE\GENERATEDFILES\DEBUG\MOC_DLGTYPES.CPP
C:\PROJEKTI\LAMELEWITHBELTS\LAMELEWITHBELTS\MBSOFTWARE\X64\DEBUG\VC141.PDB
^C:\PROJEKTI\LAMELEWITHBELTS\LAMELEWITHBELTS\MBSOFTWARE\GENERATEDFILES\DEBUG\MOC_HISTORY.CPP
C:\PROJEKTI\LAMELEWITHBELTS\LAMELEWITHBELTS\MBSOFTWARE\X64\DEBUG\VC141.PDB
^C:\PROJEKTI\LAMELEWITHBELTS\LAMELEWITHBELTS\MBSOFTWARE\GENERATEDFILES\DEBUG\MOC_GENERALSETTINGS.CPP
C:\PROJEKTI\LAMELEWITHBELTS\LAMELEWITHBELTS\MBSOFTWARE\X64\DEBUG\VC141.PDB
^C:\PROJEKTI\LAMELEWITHBELTS\LAMELEWITHBELTS\MBSOFTWARE\GENERATEDFILES\DEBUG\MOC_LOGWINDOW.CPP
C:\PROJEKTI\LAMELEWITHBELTS\LAMELEWITHBELTS\MBSOFTWARE\X64\DEBUG\VC141.PDB
^C:\PROJEKTI\LAMELEWITHBELTS\LAMELEWITHBELTS\MBSOFTWARE\GENERATEDFILES\DEBUG\MOC_SERIAL.CPP
C:\PROJEKTI\LAMELEWITHBELTS\LAMELEWITHBELTS\MBSOFTWARE\X64\DEBUG\VC141.PDB
^C:\PROJEKTI\LAMELEWITHBELTS\LAMELEWITHBELTS\MBSOFTWARE\GENERATEDFILES\DEBUG\MOC_SMCDRIVE.CPP
C:\PROJEKTI\LAMELEWITHBELTS\LAMELEWITHBELTS\MBSOFTWARE\X64\DEBUG\VC141.PDB
^C:\PROJEKTI\LAMELEWITHBELTS\LAMELEWITHBELTS\MBSOFTWARE\GENERATEDFILES\DEBUG\MOC_POINTGRAY.CPP
C:\PROJEKTI\LAMELEWITHBELTS\LAMELEWITHBELTS\MBSOFTWARE\X64\DEBUG\VC141.PDB
^C:\PROJEKTI\LAMELEWITHBELTS\LAMELEWITHBELTS\MBSOFTWARE\GENERATEDFILES\DEBUG\MOC_STATUSBOX.CPP
C:\PROJEKTI\LAMELEWITHBELTS\LAMELEWITHBELTS\MBSOFTWARE\X64\DEBUG\VC141.PDB
^C:\PROJEKTI\LAMELEWITHBELTS\LAMELEWITHBELTS\MBSOFTWARE\GENERATEDFILES\DEBUG\MOC_SERVER.CPP
C:\PROJEKTI\LAMELEWITHBELTS\LAMELEWITHBELTS\MBSOFTWARE\X64\DEBUG\VC141.PDB
^C:\PROJEKTI\LAMELEWITHBELTS\LAMELEWITHBELTS\MBSOFTWARE\GENERATEDFILES\DEBUG\MOC_TCP.CPP
C:\PROJEKTI\LAMELEWITHBELTS\LAMELEWITHBELTS\MBSOFTWARE\X64\DEBUG\VC141.PDB
^C:\PROJEKTI\LAMELEWITHBELTS\LAMELEWITHBELTS\MBSOFTWARE\GENERATEDFILES\DEBUG\MOC_LOGINWINDOW.CPP
C:\PROJEKTI\LAMELEWITHBELTS\LAMELEWITHBELTS\MBSOFTWARE\X64\DEBUG\VC141.PDB
^C:\PROJEKTI\LAMELEWITHBELTS\LAMELEWITHBELTS\MBSOFTWARE\GENERATEDFILES\DEBUG\MOC_MBSOFTWARE.CPP
C:\PROJEKTI\LAMELEWITHBELTS\LAMELEWITHBELTS\MBSOFTWARE\X64\DEBUG\VC141.PDB
^C:\PROJEKTI\LAMELEWITHBELTS\LAMELEWITHBELTS\MBSOFTWARE\GENERATEDFILES\DEBUG\MOC_IMAGEPROCESSING.CPP
C:\PROJEKTI\LAMELEWITHBELTS\LAMELEWITHBELTS\MBSOFTWARE\X64\DEBUG\VC141.PDB
^C:\PROJEKTI\LAMELEWITHBELTS\LAMELEWITHBELTS\MBSOFTWARE\GENERATEDFILES\DEBUG\MOC_MEASURAND.CPP
C:\PROJEKTI\LAMELEWITHBELTS\LAMELEWITHBELTS\MBSOFTWARE\X64\DEBUG\VC141.PDB
^C:\PROJEKTI\UNIVERSALMBSOFTWARE\UNIVERSALMBSOFTWARE\MBSOFTWARE\STDAFX.CPP
C:\PROJEKTI\UNIVERSALMBSOFTWARE\UNIVERSALMBSOFTWARE\MBSOFTWARE\X64\DEBUG\MBSOFTWARE.PCH
C:\PROJEKTI\UNIVERSALMBSOFTWARE\UNIVERSALMBSOFTWARE\MBSOFTWARE\X64\DEBUG\VC141.PDB
C:\PROJEKTI\UNIVERSALMBSOFTWARE\UNIVERSALMBSOFTWARE\MBSOFTWARE\X64\DEBUG\STDAFX.OBJ
^C:\PROJEKTI\UNIVERSALMBSOFTWARE\UNIVERSALMBSOFTWARE\MBSOFTWARE\ABOUTUS.CPP|C:\PROJEKTI\UNIVERSALMBSOFTWARE\UNIVERSALMBSOFTWARE\MBSOFTWARE\CAMERA.CPP|C:\PROJEKTI\UNIVERSALMBSOFTWARE\UNIVERSALMBSOFTWARE\MBSOFTWARE\CCIRCLE.CPP|C:\PROJEKTI\UNIVERSALMBSOFTWARE\UNIVERSALMBSOFTWARE\MBSOFTWARE\CCUSTOMGRAPHICSITEM.CPP|C:\PROJEKTI\UNIVERSALMBSOFTWARE\UNIVERSALMBSOFTWARE\MBSOFTWARE\CLINE.CPP|C:\PROJEKTI\UNIVERSALMBSOFTWARE\UNIVERSALMBSOFTWARE\MBSOFTWARE\CONTROLCARDMB.CPP|C:\PROJEKTI\UNIVERSALMBSOFTWARE\UNIVERSALMBSOFTWARE\MBSOFTWARE\CONTROLLPT.CPP|C:\PROJEKTI\UNIVERSALMBSOFTWARE\UNIVERSALMBSOFTWARE\MBSOFTWARE\CPOINTFLOAT.CPP|C:\PROJEKTI\UNIVERSALMBSOFTWARE\UNIVERSALMBSOFTWARE\MBSOFTWARE\CPROPERTY.CPP|C:\PROJEKTI\UNIVERSALMBSOFTWARE\UNIVERSALMBSOFTWARE\MBSOFTWARE\CRECTROTATED.CPP|C:\PROJEKTI\UNIVERSALMBSOFTWARE\UNIVERSALMBSOFTWARE\MBSOFTWARE\DLGTYPES.CPP|C:\PROJEKTI\UNIVERSALMBSOFTWARE\UNIVERSALMBSOFTWARE\MBSOFTWARE\GENERALSETTINGS.CPP|C:\PROJEKTI\UNIVERSALMBSOFTWARE\UNIVERSALMBSOFTWARE\MBSOFTWARE\HISTORY.CPP|C:\PROJEKTI\UNIVERSALMBSOFTWARE\UNIVERSALMBSOFTWARE\MBSOFTWARE\IMAGEPROCESSING.CPP|C:\PROJEKTI\UNIVERSALMBSOFTWARE\UNIVERSALMBSOFTWARE\MBSOFTWARE\IMAGINGSOURCE.CPP|C:\PROJEKTI\UNIVERSALMBSOFTWARE\UNIVERSALMBSOFTWARE\MBSOFTWARE\LOGINWINDOW.CPP|C:\PROJEKTI\UNIVERSALMBSOFTWARE\UNIVERSALMBSOFTWARE\MBSOFTWARE\LOGWINDOW.CPP|C:\PROJEKTI\UNIVERSALMBSOFTWARE\UNIVERSALMBSOFTWARE\MBSOFTWARE\MAIN.CPP|C:\PROJEKTI\UNIVERSALMBSOFTWARE\UNIVERSALMBSOFTWARE\MBSOFTWARE\MBSOFTWARE.CPP|C:\PROJEKTI\UNIVERSALMBSOFTWARE\UNIVERSALMBSOFTWARE\MBSOFTWARE\MEASURAND.CPP|C:\PROJEKTI\UNIVERSALMBSOFTWARE\UNIVERSALMBSOFTWARE\MBSOFTWARE\MEMORYBUFFER.CPP|C:\PROJEKTI\UNIVERSALMBSOFTWARE\UNIVERSALMBSOFTWARE\MBSOFTWARE\PCIE.CPP|C:\PROJEKTI\UNIVERSALMBSOFTWARE\UNIVERSALMBSOFTWARE\MBSOFTWARE\POINTGRAY.CPP|C:\PROJEKTI\UNIVERSALMBSOFTWARE\UNIVERSALMBSOFTWARE\MBSOFTWARE\SERIAL.CPP|C:\PROJEKTI\UNIVERSALMBSOFTWARE\UNIVERSALMBSOFTWARE\MBSOFTWARE\SERVER.CPP|C:\PROJEKTI\UNIVERSALMBSOFTWARE\UNIVERSALMBSOFTWARE\MBSOFTWARE\SIGNALS.CPP|C:\PROJEKTI\UNIVERSALMBSOFTWARE\UNIVERSALMBSOFTWARE\MBSOFTWARE\SMCDRIVE.CPP|C:\PROJEKTI\UNIVERSALMBSOFTWARE\UNIVERSALMBSOFTWARE\MBSOFTWARE\STATUSBOX.CPP|C:\PROJEKTI\UNIVERSALMBSOFTWARE\UNIVERSALMBSOFTWARE\MBSOFTWARE\TCP.CPP|C:\PROJEKTI\UNIVERSALMBSOFTWARE\UNIVERSALMBSOFTWARE\MBSOFTWARE\TIMER.CPP|C:\PROJEKTI\UNIVERSALMBSOFTWARE\UNIVERSALMBSOFTWARE\MBSOFTWARE\TYPES.CPP
C:\PROJEKTI\UNIVERSALMBSOFTWARE\UNIVERSALMBSOFTWARE\MBSOFTWARE\X64\DEBUG\ABOUTUS.OBJ
C:\PROJEKTI\UNIVERSALMBSOFTWARE\UNIVERSALMBSOFTWARE\MBSOFTWARE\X64\DEBUG\GENERALSETTINGS.OBJ
C:\PROJEKTI\UNIVERSALMBSOFTWARE\UNIVERSALMBSOFTWARE\MBSOFTWARE\X64\DEBUG\PCIE.OBJ
C:\PROJEKTI\UNIVERSALMBSOFTWARE\UNIVERSALMBSOFTWARE\MBSOFTWARE\X64\DEBUG\SERVER.OBJ
C:\PROJEKTI\UNIVERSALMBSOFTWARE\UNIVERSALMBSOFTWARE\MBSOFTWARE\X64\DEBUG\TYPES.OBJ
C:\PROJEKTI\UNIVERSALMBSOFTWARE\UNIVERSALMBSOFTWARE\MBSOFTWARE\X64\DEBUG\CPOINTFLOAT.OBJ
C:\PROJEKTI\UNIVERSALMBSOFTWARE\UNIVERSALMBSOFTWARE\MBSOFTWARE\X64\DEBUG\DLGTYPES.OBJ
C:\PROJEKTI\UNIVERSALMBSOFTWARE\UNIVERSALMBSOFTWARE\MBSOFTWARE\X64\DEBUG\LOGWINDOW.OBJ
C:\PROJEKTI\UNIVERSALMBSOFTWARE\UNIVERSALMBSOFTWARE\MBSOFTWARE\X64\DEBUG\SERIAL.OBJ
C:\PROJEKTI\UNIVERSALMBSOFTWARE\UNIVERSALMBSOFTWARE\MBSOFTWARE\X64\DEBUG\SIGNALS.OBJ
C:\PROJEKTI\UNIVERSALMBSOFTWARE\UNIVERSALMBSOFTWARE\MBSOFTWARE\X64\DEBUG\TIMER.OBJ
C:\PROJEKTI\UNIVERSALMBSOFTWARE\UNIVERSALMBSOFTWARE\MBSOFTWARE\X64\DEBUG\IMAGEPROCESSING.OBJ
C:\PROJEKTI\UNIVERSALMBSOFTWARE\UNIVERSALMBSOFTWARE\MBSOFTWARE\X64\DEBUG\CCIRCLE.OBJ
C:\PROJEKTI\UNIVERSALMBSOFTWARE\UNIVERSALMBSOFTWARE\MBSOFTWARE\X64\DEBUG\LOGINWINDOW.OBJ
C:\PROJEKTI\UNIVERSALMBSOFTWARE\UNIVERSALMBSOFTWARE\MBSOFTWARE\X64\DEBUG\CAMERA.OBJ
C:\PROJEKTI\UNIVERSALMBSOFTWARE\UNIVERSALMBSOFTWARE\MBSOFTWARE\X64\DEBUG\SMCDRIVE.OBJ
C:\PROJEKTI\UNIVERSALMBSOFTWARE\UNIVERSALMBSOFTWARE\MBSOFTWARE\X64\DEBUG\TCP.OBJ
C:\PROJEKTI\UNIVERSALMBSOFTWARE\UNIVERSALMBSOFTWARE\MBSOFTWARE\X64\DEBUG\MAIN.OBJ
C:\PROJEKTI\UNIVERSALMBSOFTWARE\UNIVERSALMBSOFTWARE\MBSOFTWARE\X64\DEBUG\CLINE.OBJ
C:\PROJEKTI\UNIVERSALMBSOFTWARE\UNIVERSALMBSOFTWARE\MBSOFTWARE\X64\DEBUG\HISTORY.OBJ
C:\PROJEKTI\UNIVERSALMBSOFTWARE\UNIVERSALMBSOFTWARE\MBSOFTWARE\X64\DEBUG\MEMORYBUFFER.OBJ
C:\PROJEKTI\UNIVERSALMBSOFTWARE\UNIVERSALMBSOFTWARE\MBSOFTWARE\X64\DEBUG\CPROPERTY.OBJ
C:\PROJEKTI\UNIVERSALMBSOFTWARE\UNIVERSALMBSOFTWARE\MBSOFTWARE\X64\DEBUG\CONTROLLPT.OBJ
C:\PROJEKTI\UNIVERSALMBSOFTWARE\UNIVERSALMBSOFTWARE\MBSOFTWARE\X64\DEBUG\MBSOFTWARE.OBJ
C:\PROJEKTI\UNIVERSALMBSOFTWARE\UNIVERSALMBSOFTWARE\MBSOFTWARE\X64\DEBUG\CCUSTOMGRAPHICSITEM.OBJ
C:\PROJEKTI\UNIVERSALMBSOFTWARE\UNIVERSALMBSOFTWARE\MBSOFTWARE\X64\DEBUG\CONTROLCARDMB.OBJ
C:\PROJEKTI\UNIVERSALMBSOFTWARE\UNIVERSALMBSOFTWARE\MBSOFTWARE\X64\DEBUG\MEASURAND.OBJ
C:\PROJEKTI\UNIVERSALMBSOFTWARE\UNIVERSALMBSOFTWARE\MBSOFTWARE\X64\DEBUG\POINTGRAY.OBJ
C:\PROJEKTI\UNIVERSALMBSOFTWARE\UNIVERSALMBSOFTWARE\MBSOFTWARE\X64\DEBUG\STATUSBOX.OBJ
C:\PROJEKTI\UNIVERSALMBSOFTWARE\UNIVERSALMBSOFTWARE\MBSOFTWARE\X64\DEBUG\CRECTROTATED.OBJ
C:\PROJEKTI\UNIVERSALMBSOFTWARE\UNIVERSALMBSOFTWARE\MBSOFTWARE\X64\DEBUG\IMAGINGSOURCE.OBJ
^C:\PROJEKTI\UNIVERSALMBSOFTWARE\UNIVERSALMBSOFTWARE\MBSOFTWARE\ABOUTUS.CPP
C:\PROJEKTI\UNIVERSALMBSOFTWARE\UNIVERSALMBSOFTWARE\MBSOFTWARE\X64\DEBUG\VC141.PDB
^C:\PROJEKTI\UNIVERSALMBSOFTWARE\UNIVERSALMBSOFTWARE\MBSOFTWARE\CCIRCLE.CPP
C:\PROJEKTI\UNIVERSALMBSOFTWARE\UNIVERSALMBSOFTWARE\MBSOFTWARE\X64\DEBUG\VC141.PDB
^C:\PROJEKTI\UNIVERSALMBSOFTWARE\UNIVERSALMBSOFTWARE\MBSOFTWARE\CCUSTOMGRAPHICSITEM.CPP
C:\PROJEKTI\UNIVERSALMBSOFTWARE\UNIVERSALMBSOFTWARE\MBSOFTWARE\X64\DEBUG\VC141.PDB
^C:\PROJEKTI\UNIVERSALMBSOFTWARE\UNIVERSALMBSOFTWARE\MBSOFTWARE\CLINE.CPP
C:\PROJEKTI\UNIVERSALMBSOFTWARE\UNIVERSALMBSOFTWARE\MBSOFTWARE\X64\DEBUG\VC141.PDB
^C:\PROJEKTI\UNIVERSALMBSOFTWARE\UNIVERSALMBSOFTWARE\MBSOFTWARE\CPOINTFLOAT.CPP
C:\PROJEKTI\UNIVERSALMBSOFTWARE\UNIVERSALMBSOFTWARE\MBSOFTWARE\X64\DEBUG\VC141.PDB
^C:\PROJEKTI\UNIVERSALMBSOFTWARE\UNIVERSALMBSOFTWARE\MBSOFTWARE\CPROPERTY.CPP
C:\PROJEKTI\UNIVERSALMBSOFTWARE\UNIVERSALMBSOFTWARE\MBSOFTWARE\X64\DEBUG\VC141.PDB
^C:\PROJEKTI\UNIVERSALMBSOFTWARE\UNIVERSALMBSOFTWARE\MBSOFTWARE\CRECTROTATED.CPP
C:\PROJEKTI\UNIVERSALMBSOFTWARE\UNIVERSALMBSOFTWARE\MBSOFTWARE\X64\DEBUG\VC141.PDB
^C:\PROJEKTI\UNIVERSALMBSOFTWARE\UNIVERSALMBSOFTWARE\MBSOFTWARE\CAMERA.CPP
C:\PROJEKTI\UNIVERSALMBSOFTWARE\UNIVERSALMBSOFTWARE\MBSOFTWARE\X64\DEBUG\VC141.PDB
^C:\PROJEKTI\UNIVERSALMBSOFTWARE\UNIVERSALMBSOFTWARE\MBSOFTWARE\CONTROLCARDMB.CPP
C:\PROJEKTI\UNIVERSALMBSOFTWARE\UNIVERSALMBSOFTWARE\MBSOFTWARE\X64\DEBUG\VC141.PDB
^C:\PROJEKTI\UNIVERSALMBSOFTWARE\UNIVERSALMBSOFTWARE\MBSOFTWARE\CONTROLLPT.CPP
C:\PROJEKTI\UNIVERSALMBSOFTWARE\UNIVERSALMBSOFTWARE\MBSOFTWARE\X64\DEBUG\VC141.PDB
^C:\PROJEKTI\UNIVERSALMBSOFTWARE\UNIVERSALMBSOFTWARE\MBSOFTWARE\DLGTYPES.CPP
C:\PROJEKTI\UNIVERSALMBSOFTWARE\UNIVERSALMBSOFTWARE\MBSOFTWARE\X64\DEBUG\VC141.PDB
^C:\PROJEKTI\UNIVERSALMBSOFTWARE\UNIVERSALMBSOFTWARE\MBSOFTWARE\GENERALSETTINGS.CPP
C:\PROJEKTI\UNIVERSALMBSOFTWARE\UNIVERSALMBSOFTWARE\MBSOFTWARE\X64\DEBUG\VC141.PDB
^C:\PROJEKTI\UNIVERSALMBSOFTWARE\UNIVERSALMBSOFTWARE\MBSOFTWARE\HISTORY.CPP
C:\PROJEKTI\UNIVERSALMBSOFTWARE\UNIVERSALMBSOFTWARE\MBSOFTWARE\X64\DEBUG\VC141.PDB
^C:\PROJEKTI\UNIVERSALMBSOFTWARE\UNIVERSALMBSOFTWARE\MBSOFTWARE\IMAGINGSOURCE.CPP
C:\PROJEKTI\UNIVERSALMBSOFTWARE\UNIVERSALMBSOFTWARE\MBSOFTWARE\X64\DEBUG\VC141.PDB
^C:\PROJEKTI\UNIVERSALMBSOFTWARE\UNIVERSALMBSOFTWARE\MBSOFTWARE\LOGWINDOW.CPP
C:\PROJEKTI\UNIVERSALMBSOFTWARE\UNIVERSALMBSOFTWARE\MBSOFTWARE\X64\DEBUG\VC141.PDB
^C:\PROJEKTI\UNIVERSALMBSOFTWARE\UNIVERSALMBSOFTWARE\MBSOFTWARE\MEASURAND.CPP
C:\PROJEKTI\UNIVERSALMBSOFTWARE\UNIVERSALMBSOFTWARE\MBSOFTWARE\X64\DEBUG\VC141.PDB
^C:\PROJEKTI\UNIVERSALMBSOFTWARE\UNIVERSALMBSOFTWARE\MBSOFTWARE\MEMORYBUFFER.CPP
C:\PROJEKTI\UNIVERSALMBSOFTWARE\UNIVERSALMBSOFTWARE\MBSOFTWARE\X64\DEBUG\VC141.PDB
^C:\PROJEKTI\UNIVERSALMBSOFTWARE\UNIVERSALMBSOFTWARE\MBSOFTWARE\PCIE.CPP
C:\PROJEKTI\UNIVERSALMBSOFTWARE\UNIVERSALMBSOFTWARE\MBSOFTWARE\X64\DEBUG\VC141.PDB
^C:\PROJEKTI\UNIVERSALMBSOFTWARE\UNIVERSALMBSOFTWARE\MBSOFTWARE\POINTGRAY.CPP
C:\PROJEKTI\UNIVERSALMBSOFTWARE\UNIVERSALMBSOFTWARE\MBSOFTWARE\X64\DEBUG\VC141.PDB
^C:\PROJEKTI\UNIVERSALMBSOFTWARE\UNIVERSALMBSOFTWARE\MBSOFTWARE\SMCDRIVE.CPP
C:\PROJEKTI\UNIVERSALMBSOFTWARE\UNIVERSALMBSOFTWARE\MBSOFTWARE\X64\DEBUG\VC141.PDB
^C:\PROJEKTI\UNIVERSALMBSOFTWARE\UNIVERSALMBSOFTWARE\MBSOFTWARE\SERIAL.CPP
C:\PROJEKTI\UNIVERSALMBSOFTWARE\UNIVERSALMBSOFTWARE\MBSOFTWARE\X64\DEBUG\VC141.PDB
^C:\PROJEKTI\UNIVERSALMBSOFTWARE\UNIVERSALMBSOFTWARE\MBSOFTWARE\SERVER.CPP
C:\PROJEKTI\UNIVERSALMBSOFTWARE\UNIVERSALMBSOFTWARE\MBSOFTWARE\X64\DEBUG\VC141.PDB
^C:\PROJEKTI\UNIVERSALMBSOFTWARE\UNIVERSALMBSOFTWARE\MBSOFTWARE\SIGNALS.CPP
C:\PROJEKTI\UNIVERSALMBSOFTWARE\UNIVERSALMBSOFTWARE\MBSOFTWARE\X64\DEBUG\VC141.PDB
^C:\PROJEKTI\UNIVERSALMBSOFTWARE\UNIVERSALMBSOFTWARE\MBSOFTWARE\TCP.CPP
C:\PROJEKTI\UNIVERSALMBSOFTWARE\UNIVERSALMBSOFTWARE\MBSOFTWARE\X64\DEBUG\VC141.PDB
^C:\PROJEKTI\UNIVERSALMBSOFTWARE\UNIVERSALMBSOFTWARE\MBSOFTWARE\TIMER.CPP
C:\PROJEKTI\UNIVERSALMBSOFTWARE\UNIVERSALMBSOFTWARE\MBSOFTWARE\X64\DEBUG\VC141.PDB
^C:\PROJEKTI\UNIVERSALMBSOFTWARE\UNIVERSALMBSOFTWARE\MBSOFTWARE\TYPES.CPP
C:\PROJEKTI\UNIVERSALMBSOFTWARE\UNIVERSALMBSOFTWARE\MBSOFTWARE\X64\DEBUG\VC141.PDB
^C:\PROJEKTI\UNIVERSALMBSOFTWARE\UNIVERSALMBSOFTWARE\MBSOFTWARE\STATUSBOX.CPP
C:\PROJEKTI\UNIVERSALMBSOFTWARE\UNIVERSALMBSOFTWARE\MBSOFTWARE\X64\DEBUG\VC141.PDB
^C:\PROJEKTI\UNIVERSALMBSOFTWARE\UNIVERSALMBSOFTWARE\MBSOFTWARE\GENERATEDFILES\DEBUG\MOC_ABOUTUS.CPP|C:\PROJEKTI\UNIVERSALMBSOFTWARE\UNIVERSALMBSOFTWARE\MBSOFTWARE\GENERATEDFILES\DEBUG\MOC_CAMERA.CPP|C:\PROJEKTI\UNIVERSALMBSOFTWARE\UNIVERSALMBSOFTWARE\MBSOFTWARE\GENERATEDFILES\DEBUG\MOC_CONTROLCARDMB.CPP|C:\PROJEKTI\UNIVERSALMBSOFTWARE\UNIVERSALMBSOFTWARE\MBSOFTWARE\GENERATEDFILES\DEBUG\MOC_CONTROLLPT.CPP|C:\PROJEKTI\UNIVERSALMBSOFTWARE\UNIVERSALMBSOFTWARE\MBSOFTWARE\GENERATEDFILES\DEBUG\MOC_DLGTYPES.CPP|C:\PROJEKTI\UNIVERSALMBSOFTWARE\UNIVERSALMBSOFTWARE\MBSOFTWARE\GENERATEDFILES\DEBUG\MOC_GENERALSETTINGS.CPP|C:\PROJEKTI\UNIVERSALMBSOFTWARE\UNIVERSALMBSOFTWARE\MBSOFTWARE\GENERATEDFILES\DEBUG\MOC_HISTORY.CPP|C:\PROJEKTI\UNIVERSALMBSOFTWARE\UNIVERSALMBSOFTWARE\MBSOFTWARE\GENERATEDFILES\DEBUG\MOC_IMAGEPROCESSING.CPP|C:\PROJEKTI\UNIVERSALMBSOFTWARE\UNIVERSALMBSOFTWARE\MBSOFTWARE\GENERATEDFILES\DEBUG\MOC_LOGINWINDOW.CPP|C:\PROJEKTI\UNIVERSALMBSOFTWARE\UNIVERSALMBSOFTWARE\MBSOFTWARE\GENERATEDFILES\DEBUG\MOC_LOGWINDOW.CPP|C:\PROJEKTI\UNIVERSALMBSOFTWARE\UNIVERSALMBSOFTWARE\MBSOFTWARE\GENERATEDFILES\DEBUG\MOC_MBSOFTWARE.CPP|C:\PROJEKTI\UNIVERSALMBSOFTWARE\UNIVERSALMBSOFTWARE\MBSOFTWARE\GENERATEDFILES\DEBUG\MOC_MEASURAND.CPP|C:\PROJEKTI\UNIVERSALMBSOFTWARE\UNIVERSALMBSOFTWARE\MBSOFTWARE\GENERATEDFILES\DEBUG\MOC_POINTGRAY.CPP|C:\PROJEKTI\UNIVERSALMBSOFTWARE\UNIVERSALMBSOFTWARE\MBSOFTWARE\GENERATEDFILES\DEBUG\MOC_SERIAL.CPP|C:\PROJEKTI\UNIVERSALMBSOFTWARE\UNIVERSALMBSOFTWARE\MBSOFTWARE\GENERATEDFILES\DEBUG\MOC_SERVER.CPP|C:\PROJEKTI\UNIVERSALMBSOFTWARE\UNIVERSALMBSOFTWARE\MBSOFTWARE\GENERATEDFILES\DEBUG\MOC_SMCDRIVE.CPP|C:\PROJEKTI\UNIVERSALMBSOFTWARE\UNIVERSALMBSOFTWARE\MBSOFTWARE\GENERATEDFILES\DEBUG\MOC_STATUSBOX.CPP|C:\PROJEKTI\UNIVERSALMBSOFTWARE\UNIVERSALMBSOFTWARE\MBSOFTWARE\GENERATEDFILES\DEBUG\MOC_TCP.CPP|C:\PROJEKTI\UNIVERSALMBSOFTWARE\UNIVERSALMBSOFTWARE\MBSOFTWARE\GENERATEDFILES\DEBUG\MOC_TYPES.CPP|C:\PROJEKTI\UNIVERSALMBSOFTWARE\UNIVERSALMBSOFTWARE\MBSOFTWARE\GENERATEDFILES\QRC_MBSOFTWARE.CPP
C:\PROJEKTI\UNIVERSALMBSOFTWARE\UNIVERSALMBSOFTWARE\MBSOFTWARE\X64\DEBUG\MOC_CONTROLLPT.OBJ
C:\PROJEKTI\UNIVERSALMBSOFTWARE\UNIVERSALMBSOFTWARE\MBSOFTWARE\X64\DEBUG\MOC_MEASURAND.OBJ
C:\PROJEKTI\UNIVERSALMBSOFTWARE\UNIVERSALMBSOFTWARE\MBSOFTWARE\X64\DEBUG\MOC_TCP.OBJ
C:\PROJEKTI\UNIVERSALMBSOFTWARE\UNIVERSALMBSOFTWARE\MBSOFTWARE\X64\DEBUG\MOC_HISTORY.OBJ
C:\PROJEKTI\UNIVERSALMBSOFTWARE\UNIVERSALMBSOFTWARE\MBSOFTWARE\X64\DEBUG\MOC_SERVER.OBJ
C:\PROJEKTI\UNIVERSALMBSOFTWARE\UNIVERSALMBSOFTWARE\MBSOFTWARE\X64\DEBUG\MOC_CAMERA.OBJ
C:\PROJEKTI\UNIVERSALMBSOFTWARE\UNIVERSALMBSOFTWARE\MBSOFTWARE\X64\DEBUG\MOC_STATUSBOX.OBJ
C:\PROJEKTI\UNIVERSALMBSOFTWARE\UNIVERSALMBSOFTWARE\MBSOFTWARE\X64\DEBUG\MOC_GENERALSETTINGS.OBJ
C:\PROJEKTI\UNIVERSALMBSOFTWARE\UNIVERSALMBSOFTWARE\MBSOFTWARE\X64\DEBUG\MOC_SERIAL.OBJ
C:\PROJEKTI\UNIVERSALMBSOFTWARE\UNIVERSALMBSOFTWARE\MBSOFTWARE\X64\DEBUG\MOC_IMAGEPROCESSING.OBJ
C:\PROJEKTI\UNIVERSALMBSOFTWARE\UNIVERSALMBSOFTWARE\MBSOFTWARE\X64\DEBUG\MOC_DLGTYPES.OBJ
C:\PROJEKTI\UNIVERSALMBSOFTWARE\UNIVERSALMBSOFTWARE\MBSOFTWARE\X64\DEBUG\MOC_POINTGRAY.OBJ
C:\PROJEKTI\UNIVERSALMBSOFTWARE\UNIVERSALMBSOFTWARE\MBSOFTWARE\X64\DEBUG\MOC_ABOUTUS.OBJ
C:\PROJEKTI\UNIVERSALMBSOFTWARE\UNIVERSALMBSOFTWARE\MBSOFTWARE\X64\DEBUG\MOC_LOGINWINDOW.OBJ
C:\PROJEKTI\UNIVERSALMBSOFTWARE\UNIVERSALMBSOFTWARE\MBSOFTWARE\X64\DEBUG\MOC_TYPES.OBJ
C:\PROJEKTI\UNIVERSALMBSOFTWARE\UNIVERSALMBSOFTWARE\MBSOFTWARE\X64\DEBUG\MOC_LOGWINDOW.OBJ
C:\PROJEKTI\UNIVERSALMBSOFTWARE\UNIVERSALMBSOFTWARE\MBSOFTWARE\X64\DEBUG\MOC_MBSOFTWARE.OBJ
C:\PROJEKTI\UNIVERSALMBSOFTWARE\UNIVERSALMBSOFTWARE\MBSOFTWARE\X64\DEBUG\MOC_CONTROLCARDMB.OBJ
C:\PROJEKTI\UNIVERSALMBSOFTWARE\UNIVERSALMBSOFTWARE\MBSOFTWARE\X64\DEBUG\MOC_SMCDRIVE.OBJ
C:\PROJEKTI\UNIVERSALMBSOFTWARE\UNIVERSALMBSOFTWARE\MBSOFTWARE\X64\DEBUG\QRC_MBSOFTWARE.OBJ
^C:\PROJEKTI\UNIVERSALMBSOFTWARE\UNIVERSALMBSOFTWARE\MBSOFTWARE\GENERATEDFILES\DEBUG\MOC_ABOUTUS.CPP
C:\PROJEKTI\UNIVERSALMBSOFTWARE\UNIVERSALMBSOFTWARE\MBSOFTWARE\X64\DEBUG\VC141.PDB
^C:\PROJEKTI\UNIVERSALMBSOFTWARE\UNIVERSALMBSOFTWARE\MBSOFTWARE\GENERATEDFILES\DEBUG\MOC_CAMERA.CPP
C:\PROJEKTI\UNIVERSALMBSOFTWARE\UNIVERSALMBSOFTWARE\MBSOFTWARE\X64\DEBUG\VC141.PDB
^C:\PROJEKTI\UNIVERSALMBSOFTWARE\UNIVERSALMBSOFTWARE\MBSOFTWARE\GENERATEDFILES\DEBUG\MOC_CONTROLCARDMB.CPP
C:\PROJEKTI\UNIVERSALMBSOFTWARE\UNIVERSALMBSOFTWARE\MBSOFTWARE\X64\DEBUG\VC141.PDB
^C:\PROJEKTI\UNIVERSALMBSOFTWARE\UNIVERSALMBSOFTWARE\MBSOFTWARE\GENERATEDFILES\DEBUG\MOC_CONTROLLPT.CPP
C:\PROJEKTI\UNIVERSALMBSOFTWARE\UNIVERSALMBSOFTWARE\MBSOFTWARE\X64\DEBUG\VC141.PDB
^C:\PROJEKTI\UNIVERSALMBSOFTWARE\UNIVERSALMBSOFTWARE\MBSOFTWARE\GENERATEDFILES\DEBUG\MOC_DLGTYPES.CPP
C:\PROJEKTI\UNIVERSALMBSOFTWARE\UNIVERSALMBSOFTWARE\MBSOFTWARE\X64\DEBUG\VC141.PDB
^C:\PROJEKTI\UNIVERSALMBSOFTWARE\UNIVERSALMBSOFTWARE\MBSOFTWARE\GENERATEDFILES\DEBUG\MOC_GENERALSETTINGS.CPP
C:\PROJEKTI\UNIVERSALMBSOFTWARE\UNIVERSALMBSOFTWARE\MBSOFTWARE\X64\DEBUG\VC141.PDB
^C:\PROJEKTI\UNIVERSALMBSOFTWARE\UNIVERSALMBSOFTWARE\MBSOFTWARE\GENERATEDFILES\DEBUG\MOC_HISTORY.CPP
C:\PROJEKTI\UNIVERSALMBSOFTWARE\UNIVERSALMBSOFTWARE\MBSOFTWARE\X64\DEBUG\VC141.PDB
^C:\PROJEKTI\UNIVERSALMBSOFTWARE\UNIVERSALMBSOFTWARE\MBSOFTWARE\GENERATEDFILES\DEBUG\MOC_LOGWINDOW.CPP
C:\PROJEKTI\UNIVERSALMBSOFTWARE\UNIVERSALMBSOFTWARE\MBSOFTWARE\X64\DEBUG\VC141.PDB
^C:\PROJEKTI\UNIVERSALMBSOFTWARE\UNIVERSALMBSOFTWARE\MBSOFTWARE\GENERATEDFILES\DEBUG\MOC_LOGINWINDOW.CPP
C:\PROJEKTI\UNIVERSALMBSOFTWARE\UNIVERSALMBSOFTWARE\MBSOFTWARE\X64\DEBUG\VC141.PDB
^C:\PROJEKTI\UNIVERSALMBSOFTWARE\UNIVERSALMBSOFTWARE\MBSOFTWARE\GENERATEDFILES\DEBUG\MOC_MEASURAND.CPP
C:\PROJEKTI\UNIVERSALMBSOFTWARE\UNIVERSALMBSOFTWARE\MBSOFTWARE\X64\DEBUG\VC141.PDB
^C:\PROJEKTI\UNIVERSALMBSOFTWARE\UNIVERSALMBSOFTWARE\MBSOFTWARE\GENERATEDFILES\DEBUG\MOC_POINTGRAY.CPP
C:\PROJEKTI\UNIVERSALMBSOFTWARE\UNIVERSALMBSOFTWARE\MBSOFTWARE\X64\DEBUG\VC141.PDB
^C:\PROJEKTI\UNIVERSALMBSOFTWARE\UNIVERSALMBSOFTWARE\MBSOFTWARE\GENERATEDFILES\DEBUG\MOC_SMCDRIVE.CPP
C:\PROJEKTI\UNIVERSALMBSOFTWARE\UNIVERSALMBSOFTWARE\MBSOFTWARE\X64\DEBUG\VC141.PDB
^C:\PROJEKTI\UNIVERSALMBSOFTWARE\UNIVERSALMBSOFTWARE\MBSOFTWARE\GENERATEDFILES\DEBUG\MOC_SERIAL.CPP
C:\PROJEKTI\UNIVERSALMBSOFTWARE\UNIVERSALMBSOFTWARE\MBSOFTWARE\X64\DEBUG\VC141.PDB
^C:\PROJEKTI\UNIVERSALMBSOFTWARE\UNIVERSALMBSOFTWARE\MBSOFTWARE\GENERATEDFILES\DEBUG\MOC_SERVER.CPP
C:\PROJEKTI\UNIVERSALMBSOFTWARE\UNIVERSALMBSOFTWARE\MBSOFTWARE\X64\DEBUG\VC141.PDB
^C:\PROJEKTI\UNIVERSALMBSOFTWARE\UNIVERSALMBSOFTWARE\MBSOFTWARE\GENERATEDFILES\DEBUG\MOC_TCP.CPP
C:\PROJEKTI\UNIVERSALMBSOFTWARE\UNIVERSALMBSOFTWARE\MBSOFTWARE\X64\DEBUG\VC141.PDB
^C:\PROJEKTI\UNIVERSALMBSOFTWARE\UNIVERSALMBSOFTWARE\MBSOFTWARE\GENERATEDFILES\DEBUG\MOC_TYPES.CPP
C:\PROJEKTI\UNIVERSALMBSOFTWARE\UNIVERSALMBSOFTWARE\MBSOFTWARE\X64\DEBUG\VC141.PDB
^C:\PROJEKTI\UNIVERSALMBSOFTWARE\UNIVERSALMBSOFTWARE\MBSOFTWARE\GENERATEDFILES\DEBUG\MOC_STATUSBOX.CPP
C:\PROJEKTI\UNIVERSALMBSOFTWARE\UNIVERSALMBSOFTWARE\MBSOFTWARE\X64\DEBUG\VC141.PDB
^C:\PROJEKTI\UNIVERSALMBSOFTWARE\UNIVERSALMBSOFTWARE\MBSOFTWARE\GENERATEDFILES\QRC_MBSOFTWARE.CPP
C:\PROJEKTI\UNIVERSALMBSOFTWARE\UNIVERSALMBSOFTWARE\MBSOFTWARE\X64\DEBUG\VC141.PDB
^C:\PROJEKTI\UNIVERSALMBSOFTWARE\UNIVERSALMBSOFTWARE\MBSOFTWARE\IMAGEPROCESSING.CPP|C:\PROJEKTI\UNIVERSALMBSOFTWARE\UNIVERSALMBSOFTWARE\MBSOFTWARE\LOGINWINDOW.CPP|C:\PROJEKTI\UNIVERSALMBSOFTWARE\UNIVERSALMBSOFTWARE\MBSOFTWARE\MAIN.CPP|C:\PROJEKTI\UNIVERSALMBSOFTWARE\UNIVERSALMBSOFTWARE\MBSOFTWARE\MBSOFTWARE.CPP
C:\PROJEKTI\UNIVERSALMBSOFTWARE\UNIVERSALMBSOFTWARE\MBSOFTWARE\X64\DEBUG\IMAGEPROCESSING.OBJ
C:\PROJEKTI\UNIVERSALMBSOFTWARE\UNIVERSALMBSOFTWARE\MBSOFTWARE\X64\DEBUG\LOGINWINDOW.OBJ
C:\PROJEKTI\UNIVERSALMBSOFTWARE\UNIVERSALMBSOFTWARE\MBSOFTWARE\X64\DEBUG\MBSOFTWARE.OBJ
C:\PROJEKTI\UNIVERSALMBSOFTWARE\UNIVERSALMBSOFTWARE\MBSOFTWARE\X64\DEBUG\MAIN.OBJ
^C:\PROJEKTI\UNIVERSALMBSOFTWARE\UNIVERSALMBSOFTWARE\MBSOFTWARE\IMAGEPROCESSING.CPP
C:\PROJEKTI\UNIVERSALMBSOFTWARE\UNIVERSALMBSOFTWARE\MBSOFTWARE\X64\DEBUG\VC141.PDB
^C:\PROJEKTI\UNIVERSALMBSOFTWARE\UNIVERSALMBSOFTWARE\MBSOFTWARE\GENERATEDFILES\DEBUG\MOC_IMAGEPROCESSING.CPP|C:\PROJEKTI\UNIVERSALMBSOFTWARE\UNIVERSALMBSOFTWARE\MBSOFTWARE\GENERATEDFILES\DEBUG\MOC_MBSOFTWARE.CPP
C:\PROJEKTI\UNIVERSALMBSOFTWARE\UNIVERSALMBSOFTWARE\MBSOFTWARE\X64\DEBUG\MOC_IMAGEPROCESSING.OBJ
C:\PROJEKTI\UNIVERSALMBSOFTWARE\UNIVERSALMBSOFTWARE\MBSOFTWARE\X64\DEBUG\MOC_MBSOFTWARE.OBJ
^C:\PROJEKTI\UNIVERSALMBSOFTWARE\UNIVERSALMBSOFTWARE\MBSOFTWARE\GENERATEDFILES\DEBUG\MOC_IMAGEPROCESSING.CPP
C:\PROJEKTI\UNIVERSALMBSOFTWARE\UNIVERSALMBSOFTWARE\MBSOFTWARE\X64\DEBUG\VC141.PDB
^C:\PROJEKTI\UNIVERSALMBSOFTWARE\UNIVERSALMBSOFTWARE\MBSOFTWARE\LOGINWINDOW.CPP|C:\PROJEKTI\UNIVERSALMBSOFTWARE\UNIVERSALMBSOFTWARE\MBSOFTWARE\MAIN.CPP|C:\PROJEKTI\UNIVERSALMBSOFTWARE\UNIVERSALMBSOFTWARE\MBSOFTWARE\MBSOFTWARE.CPP
C:\PROJEKTI\UNIVERSALMBSOFTWARE\UNIVERSALMBSOFTWARE\MBSOFTWARE\X64\DEBUG\LOGINWINDOW.OBJ
C:\PROJEKTI\UNIVERSALMBSOFTWARE\UNIVERSALMBSOFTWARE\MBSOFTWARE\X64\DEBUG\MAIN.OBJ
^C:\PROJEKTI\UNIVERSALMBSOFTWARE\UNIVERSALMBSOFTWARE\MBSOFTWARE\LOGINWINDOW.CPP
C:\PROJEKTI\UNIVERSALMBSOFTWARE\UNIVERSALMBSOFTWARE\MBSOFTWARE\X64\DEBUG\LOGINWINDOW.OBJ
^C:\PROJEKTI\UNIVERSALMBSOFTWARE\UNIVERSALMBSOFTWARE\MBSOFTWARE\MAIN.CPP
C:\PROJEKTI\UNIVERSALMBSOFTWARE\UNIVERSALMBSOFTWARE\MBSOFTWARE\X64\DEBUG\MAIN.OBJ
^C:\PROJEKTI\UNIVERSALMBSOFTWARE\UNIVERSALMBSOFTWARE\MBSOFTWARE\MBSOFTWARE.CPP
C:\PROJEKTI\UNIVERSALMBSOFTWARE\UNIVERSALMBSOFTWARE\MBSOFTWARE\X64\DEBUG\VC141.PDB
C:\PROJEKTI\UNIVERSALMBSOFTWARE\UNIVERSALMBSOFTWARE\MBSOFTWARE\X64\DEBUG\MBSOFTWARE.OBJ
^C:\PROJEKTI\UNIVERSALMBSOFTWARE\UNIVERSALMBSOFTWARE\MBSOFTWARE\GENERATEDFILES\DEBUG\MOC_MBSOFTWARE.CPP
C:\PROJEKTI\UNIVERSALMBSOFTWARE\UNIVERSALMBSOFTWARE\MBSOFTWARE\X64\DEBUG\VC141.PDB
C:\PROJEKTI\UNIVERSALMBSOFTWARE\UNIVERSALMBSOFTWARE\MBSOFTWARE\X64\DEBUG\MOC_MBSOFTWARE.OBJ
